1.3635486000000001e-22
1.3668223e-22
1.3738558e-22
1.3814338999999998e-22
1.3891576000000002e-22
1.3970228000000001e-22
1.4050322000000001e-22
1.4131887e-22
1.4214973999999997e-22
1.4299604e-22
1.4385809e-22
1.4473668999999999e-22
1.4563298e-22
1.4660721e-22
1.4957113999999998e-22
1.5834113e-22
1.7297631e-22
1.9136015e-22
2.1405293999999997e-22
2.4185606e-22
2.7555864e-22
3.1617466999999997e-22
3.5386073e-22
3.5737551e-22
3.2814916e-22
2.946077e-22
2.6464069999999995e-22
2.3952684e-22
2.1950132e-22
2.0382807999999998e-22
1.9111649000000002e-22
1.8123038000000001e-22
1.7563087e-22
1.741822e-22
1.7534205e-22
1.7923155e-22
1.8672505e-22
1.9629935000000002e-22
2.0587229999999998e-22
2.1721154e-22
2.3552875e-22
2.614553e-22
2.9013415e-22
3.2023878999999996e-22
3.5163349e-22
3.8419754999999995e-22
4.1782222e-22
4.5239863e-22
4.878112599999999e-22
5.2372952e-22
5.6011757e-22
5.9683375e-22
6.3375778e-22
6.7085634e-22
7.081553299999999e-22
7.456874999999999e-22
7.8346441e-22
8.214834800000001e-22
8.597303000000002e-22
8.9818339e-22
9.366742800000001e-22
9.752198e-22
1.0138881000000001e-21
1.0526355000000001e-21
1.0913822e-21
1.1299658e-21
1.168044e-21
1.2050681e-21
1.2405179e-21
1.2742951e-21
1.3067772e-21
1.3384553999999999e-21
1.3696641e-21
1.4005746e-21
1.4312666e-21
