1.8400649e-22
1.8457501000000003e-22
1.8579563000000002e-22
1.8710969e-22
1.8844787e-22
1.8980942e-22
1.9119479e-22
1.9260444e-22
1.9403920999999998e-22
1.954995e-22
1.9698587e-22
1.984998e-22
2.0004333e-22
2.0172013e-22
2.0680473e-22
2.2174729e-22
2.4643808e-22
2.7699816e-22
3.1410775e-22
3.588243e-22
4.1213176000000003e-22
4.752798199999999e-22
5.3301005e-22
5.3843763e-22
4.9397486e-22
4.424111200000001e-22
3.9584921e-22
3.5649663e-22
3.2503933e-22
3.0057761e-22
2.8111642e-22
2.6668656e-22
2.6004323999999996e-22
2.6139094e-22
2.6854388e-22
2.8202594e-22
3.0246066e-22
3.2632818e-22
3.5005097999999997e-22
3.7671827e-22
4.1539763999999995e-22
4.669883900000001e-22
5.2287709e-22
5.8073582e-22
6.4032363e-22
7.0142686e-22
7.638574300000001e-22
8.2743185e-22
8.919602199999999e-22
9.568699600000001e-22
1.0221413e-21
1.0875663e-21
1.1529669e-21
1.2183025e-21
1.2836233e-21
1.3489881e-21
1.4144208000000001e-21
1.4799231e-21
1.5454780000000002e-21
1.6110578000000001e-21
1.6763715000000001e-21
1.741462e-21
1.806465e-21
1.8713207e-21
1.9359164e-21
2.0000195000000003e-21
2.0631359000000003e-21
2.1244756000000003e-21
2.1832991000000003e-21
2.239486e-21
2.293606e-21
2.3463864e-21
2.3983206e-21
2.4496619999999996e-21
2.5005304e-21
