2.0999236e-25
7.903999399999999e-25
1.1790148000000002e-24
1.5287720000000002e-24
1.9835331999999997e-24
2.5768556999999997e-24
3.3529441e-24
4.3704676e-24
5.7076970999999996e-24
7.469373700000001e-24
9.7960741e-24
1.2877043999999998e-23
1.6967749999999998e-23
2.2420593e-23
2.9969629999999997e-23
4.1013838e-23
5.684107499999999e-23
7.874075800000001e-23
1.0898651000000002e-22
1.5069293e-22
2.0807574e-22
2.8707819999999996e-22
3.928278200000001e-22
5.2461469e-22
6.881676300000001e-22
9.0313392e-22
1.1910761e-21
1.5788499000000001e-21
2.1010191e-21
2.8047886e-21
3.7480506e-21
5.0079526e-21
6.695737799999999e-21
8.9456492e-21
1.1915861999999999e-20
1.5703659e-20
1.9785700000000002e-20
2.3664547000000003e-20
2.7346132000000005e-20
3.0894623e-20
3.443136e-20
3.7955992999999994e-20
4.1340806e-20
4.4584333e-20
4.7703099999999997e-20
5.070345999999999e-20
5.3591259000000007e-20
5.6371823e-20
5.905e-20
6.1607871e-20
6.40672e-20
6.6435849e-20
6.871783e-20
7.091724799999999e-20
7.30381e-20
7.5084063e-20
7.7058445e-20
7.896428299999999e-20
8.080438499999999e-20
8.2581379e-20
8.428446000000001e-20
8.59203e-20
8.750000900000001e-20
8.9025731e-20
9.0499491e-20
9.1923187e-20
9.329856800000001e-20
9.462731900000001e-20
9.5911204e-20
9.715216199999999e-20
9.835215099999999e-20
9.9512936e-20
1.0063605e-19
1.0172287e-19
1.0277468e-19
