1.4330278e-26
7.1655382e-26
1.1444618e-25
1.5111482e-25
1.9948635e-25
2.6352317999999996e-25
3.484805e-25
4.6139663e-25
6.1174228e-25
8.1229142e-25
1.0803154e-24
1.4392278999999999e-24
1.9208419e-24
2.5700218999999995e-24
3.5106461e-24
5.0291195000000005e-24
7.405580400000001e-24
1.0897813000000001e-23
1.6002429e-23
2.3442591e-23
3.4249214000000004e-23
4.9915286999999995e-23
7.1303238e-23
9.5877414e-23
1.2241878999999998e-22
1.5470303000000003e-22
1.9579851000000003e-22
2.4881012e-22
3.1778805e-22
4.0770229999999995e-22
5.2320819e-22
6.7105467e-22
8.660912300000001e-22
1.1249933000000001e-21
1.4572262e-21
1.8671907000000003e-21
2.3108982999999998e-21
2.7418536e-21
3.1469883000000003e-21
3.5559653999999995e-21
4.0474642e-21
4.6294565e-21
5.2303411e-21
5.8324502e-21
6.434937299999999e-21
7.0368716e-21
7.637497800000001e-21
8.2360828e-21
8.8318463e-21
9.420371099999999e-21
1.0002924e-20
1.0578893e-20
1.1147633999999998e-20
1.1709313999999998e-20
1.2264590999999999e-20
1.2814111000000001e-20
1.3358271999999997e-20
1.3897307e-20
1.4431323e-20
1.4960346999999998e-20
1.5481958e-20
1.5996854999999998e-20
1.650659e-20
1.7010981e-20
1.7509561e-20
1.8001231e-20
1.8483528999999998e-20
1.8952483000000002e-20
1.9404449e-20
1.9839051e-20
2.0259469e-20
2.066964e-20
2.1072237e-20
2.1468661e-20
2.1859607999999996e-20
