3.0897466e-26
1.8713379e-25
2.6843667e-25
3.5347025e-25
4.6549449e-25
6.1350772e-25
8.094907799999999e-25
1.0694748e-24
1.4150036e-24
1.8751002e-24
2.4889612000000002e-24
3.3096632000000005e-24
4.4092542e-24
5.8880654000000006e-24
7.97453e-24
1.1138613000000001e-23
1.5826772e-23
2.2472431e-23
3.1863632999999996e-23
4.5107365e-23
6.3734675e-23
8.992646600000001e-23
1.2534966000000001e-22
1.6850167999999998e-22
2.199917e-22
2.8629300999999995e-22
3.7393388999999995e-22
4.906253299999999e-22
6.4633525e-22
8.543351300000001e-22
1.1299206999999999e-21
1.4937862e-21
1.9797139e-21
2.6281131e-21
3.4788502e-21
4.5569297999999996e-21
5.7285428e-21
6.8604121e-21
7.9420515e-21
9.0132223e-21
1.0171372999999999e-20
1.1422433999999999e-20
1.2673273000000001e-20
1.3906586e-20
1.5124356999999998e-20
1.6326541000000003e-20
1.7513147000000003e-20
1.8684111e-20
1.9839261000000002e-20
2.0970581000000002e-20
2.2083216e-20
2.3177899e-20
2.4254554e-20
2.5313796000000003e-20
2.6356623000000002e-20
2.7383962e-20
2.8396470000000004e-20
2.9394636000000006e-20
3.0378811000000003e-20
3.1349265000000004e-20
3.2301154e-20
3.3236222000000006e-20
3.4158008000000004e-20
3.506658e-20
3.5961786e-20
3.6842987e-20
3.7708519999999994e-20
3.8555620999999996e-20
3.9381831e-20
4.0187174e-20
4.0974309999999997e-20
4.174639299999999e-20
4.2505582000000003e-20
4.3253059e-20
4.3989469000000006e-20
